{
  "name": "paspartu-gourmet-backend-e2e",
  "$schema": "../../node_modules/nx/schemas/project-schema.json",
  "implicitDependencies": ["paspartu-gourmet-backend"],
  "targets": {
    "e2e": {
      "executor": "@nrwl/jest:jest",
      "outputs": ["{workspaceRoot}/coverage/{e2eProjectRoot}"],
      "options": {
        "jestConfig": "packages/paspartu-gourmet-backend-e2e/jest.config.ts",
        "passWithNoTests": true
      }
    },
    "lint": {
      "executor": "@nrwl/linter:eslint",
      "outputs": ["{options.outputFile}"],
      "options": {
        "lintFilePatterns": [
          "packages/paspartu-gourmet-backend-e2e/**/*.{js,ts}"
        ]
      }
    }
  }
}
