{
  "name": "paspartu-gourmet-domain",
  "$schema": "../../node_modules/nx/schemas/project-schema.json",
  "sourceRoot": "packages/paspartu-gourmet-domain/src",
  "projectType": "library",
  "targets": {
    "build": {
      "executor": "@nrwl/js:tsc",
      "outputs": ["{options.outputPath}"],
      "options": {
        "outputPath": "dist/packages/paspartu-gourmet-domain",
        "tsConfig": "packages/paspartu-gourmet-domain/tsconfig.lib.json",
        "packageJson": "packages/paspartu-gourmet-domain/package.json",
        "main": "packages/paspartu-gourmet-domain/src/index.ts",
        "assets": ["packages/paspartu-gourmet-domain/*.md"]
      }
    },
    "publish": {
      "executor": "nx:run-commands",
      "options": {
        "command": "node tools/scripts/publish.mjs paspartu-gourmet-domain {args.ver} {args.tag}"
      },
      "dependsOn": ["build"]
    },
    "lint": {
      "executor": "@nrwl/linter:eslint",
      "outputs": ["{options.outputFile}"],
      "options": {
        "lintFilePatterns": ["packages/paspartu-gourmet-domain/**/*.ts"]
      }
    },
    "test": {
      "executor": "@nrwl/jest:jest",
      "outputs": ["{workspaceRoot}/coverage/{projectRoot}"],
      "options": {
        "jestConfig": "packages/paspartu-gourmet-domain/jest.config.ts",
        "passWithNoTests": true
      },
      "configurations": {
        "ci": {
          "ci": true,
          "codeCoverage": true
        }
      }
    },
    "prisma-generate": {
      "executor": "@nx-tools/nx-prisma:generate",
      "options": {
        "schema": "prisma/schema.prisma"
      }
    },
    "prisma-migrate": {
      "executor": "@nx-tools/nx-prisma:migrate",
      "options": {
        "schema": "prisma/schema.prisma"
      }
    },
    "prisma-pull": {
      "executor": "@nx-tools/nx-prisma:pull",
      "options": {
        "schema": "prisma/schema.prisma"
      }
    },
    "prisma-push": {
      "executor": "@nx-tools/nx-prisma:push",
      "options": {
        "schema": "prisma/schema.prisma"
      }
    },
    "prisma-deploy": {
      "executor": "@nx-tools/nx-prisma:deploy",
      "options": {
        "schema": "prisma/schema.prisma"
      }
    },
    "prisma-status": {
      "executor": "@nx-tools/nx-prisma:status",
      "options": {
        "schema": "prisma/schema.prisma"
      }
    },
    "prisma-studio": {
      "executor": "@nx-tools/nx-prisma:studio",
      "options": {
        "schema": "prisma/schema.prisma"
      }
    }
  },
  "tags": []
}
